T 0.01
tmax 1.0
dim = 2
X0 = 1.0 3.0 
Euler
0.86 2.8 
0.7291 2.6129 
0.606746 2.4378879999999996 
0.49241906 2.2742032999999995 
0.38563308560000004 2.1211332595999997 
0.28593275347600006 1.9780102622839997 
0.1928915678965601 1.8442088714588798 
0.10611004000258169 1.7191431661357237 
0.025213982095821333 1.602264244906249 
-0.05014709032853289 1.4930578875837697 
-0.1203014556110067 1.3910423645496204 
-0.1855565883945978 1.295766384475037 
-0.24620047350229562 1.2068071716778384 
-0.3025028368212105 1.1237686649253666 
-0.3547162984356909 1.0462798300123788 
-0.40307745292066677 0.9739930789271554 
-0.44780788139623123 0.9065827888730478 
-0.4891150996538459 0.8437439148379721 
-0.5271934463922829 0.7851906898027756 
-0.5622249153463446 0.7306554070526585 
-0.5943799348524409 0.679887279405509 
-0.6238180981712408 0.632651370498599 
-0.6506888476778832 0.5887275935819847 
-0.6751321158337612 0.5479097735544669 
-0.6972789256698222 0.5100047682473166 
-0.7172519533388863 0.4748316452133062 
-0.7351660551329404 0.4422209105149859 
-0.7511287612100191 0.4120137862276075 
-0.7652407381334997 0.3840615335795748 
-0.7775962221938134 0.35822481884766955 
-0.788283425358135 0.3343731193063946 
-0.7973849155770361 0.3123841667013656 
-0.8049779730678747 0.29214342587649966 
-0.8111349240923784 0.27354360633446595 
-0.8159234536500255 0.25648420465012955 
-0.8194068984190322 0.24087107578812023 
-0.8216445211926285 0.2266160314987615 
-0.822691767979493 0.2136364640819219 
-0.822600508863384 0.20185499391639244 
-0.8214192636478375 0.19119913925361115 
-0.8191934132469963 0.18160100686938 
-0.8159653977229353 0.17299700225605344 
-0.8117749018129673 0.16532755812090036 
-0.806659028737142 0.15853688003430766 
-0.8006524630262288 0.15257270814453472 
-0.7937876230637179 0.147386093944155 
-0.7860948039915627 0.14293119113742697 
-0.7776023115883497 0.13916505971789148 
-0.7683365876901278 0.13604748242175557 
-0.7583223276881168 0.1335407927753314 
-0.7475825906037645 0.13160971400417704 
-0.736138902210011 0.13022120811784701 
-0.7240113516380035 0.12934433452749763 
-0.7112186818807583 0.12895011759419278 
-0.6977783745792755 0.12901142254379172 
-0.6837067294522579 0.12950283921993355 
-0.6690189387077771 0.13040057318001563 
-0.6537291567538556 0.13168234367033677 
-0.6378505655049109 0.13332728804587465 
-0.6213954355622537 0.13531587222761432 
-0.604375183529257 0.1376298068160588 
-0.5868004257053525 0.14025196850364213 
-0.5686810283875882 0.14316632645133368 
-0.5500261549940307 0.14635787331586445 
-0.5308443102097642 0.14981256063381362 
-0.5111433813435525 0.15351723828734903 
-0.4909306770713555 0.1574595977937991 
-0.470212963731759 0.1616281191775196 
-0.4489964993279526 0.16601202119777564 
-0.4272870653811209 0.17060121472065182 
-0.4050899967709647 0.175386259036395 
-0.38241020969049405 0.1803583209361377 
-0.35925222783420585 0.18550913637370314 
-0.33562020693123307 0.19083097454920186 
-0.31151795772800545 0.19631660426144543 
-0.28694896751835774 0.2019592623858642 
-0.2619164203128345 0.20775262434367014 
-0.23642321573314634 0.2136907764364849 
-0.21047198671230202 0.2197681899285995 
-0.184065116075855 0.22597969676647453 
-0.15720475207493723 0.23232046683206278 
-0.1298928229372897 0.23878598663306902 
-0.10213105049831603 0.24537203933938131 
-0.07392096297026823 0.2520746860806415 
-0.04526390690400296 0.2588902484252939 
-0.01616105839430766 0.2658152919664833 
0.013386566423425124 0.2728466109448864 
0.04337810154041509 0.2799812138429786 
0.07381282186367034 0.28721630988937424 
0.10469013458783837 0.2945492964157548 
0.13600957111292905 0.30197774701253033 
0.16777077947343186 0.3094994004327825 
0.19997351724652707 0.31711215019722205 
0.23261764490913125 0.3248140348558818 
0.26570311961542853 0.3326032288650614 
0.2992299893683298 0.3404780340406614 
0.33319838755998005 0.34843687155149844 
0.36760852785800496 0.3564782744184934 
0.4024606994156604 0.36460088048777894 
0.43775526238542806 0.372803425847791 
Obrnuti Euler
0.8680883185506698 2.8118512926967347 
0.7437836725933005 2.634849653666044 
0.6266333713828357 2.468332698485862 
0.5162116177159285 2.311677396881328 
0.41211791008867427 2.1642977345628167 
0.31397553978745096 2.025642513981954 
0.22143017727257483 1.8951932857520368 
0.13414854254958786 1.7724624029696565 
0.05181715453819226 1.6569911911355497 
-0.025858845254681802 1.5483482268065447 
-0.09915679917233133 1.4461277185185244 
-0.16833757410862496 1.3499479839041475 
-0.23364654037689758 1.259450017290073 
-0.29531449242100777 1.1742961423980027 
-0.35355851482390865 1.094168745093237 
-0.40858279686378945 1.0187690814248587 
-0.4605793986747477 0.9478161564842159 
-0.5097289718873285 0.8810456698741518 
-0.5562014374534336 0.818209023831418 
-0.6001566231994195 0.7590723902798353 
-0.6417448635000665 0.7034158333129295 
-0.6811075633239456 0.6510324838127943 
-0.7183777287669951 0.6017277631075928 
-0.753680466065356 0.5553186527541487 
-0.7871334509602174 0.5116330077051836 
-0.8188473701761575 0.47050891028357195 
-0.8489263366698122 0.4317940625391343 
-0.8774682802072614 0.3953452147075342 
-0.9045653147359373 0.36102762762633156 
-0.9303040839297692 0.3287145670906858 
-0.9547660862043661 0.29828682825106734 
-0.97802798042199 0.26963228826808167 
-1.0001618734336037 0.24264548554555662 
-1.0212355905371142 0.21722722396279012 
-1.041312929866816 0.1932842006206747 
-1.0604539016687362 0.17072865570466103 
-1.078714953359861 0.14947804315052562 
-1.0961491812158686 0.12945472087697843 
-1.1128065294818157 0.11058565942257968 
-1.128733977653021 0.09280216789350416 
-1.1439757166289937 0.07603963619365815 
-1.1585733144014965 0.06023729256975997 
-1.1725658718985554 0.045337975561471414 
-1.1859901695692845 0.03128791950072763 
-1.198880805259644 0.01803655275526279 
-1.2112703238965674 0.0055363079591561806 
-1.2231893394671491 -0.006257556481790013 
-1.2346666497506698 -0.017387124279716552 
-1.2457293442340354 -0.027891979179492432 
-1.2564029056156285 -0.03780935349126048 
-1.2667113052785046 -0.04717426779817339 
-1.2766770930912352 -0.056019662363631526 
-1.2863214818734099 -0.06437652073118282 
-1.2956644268427904 -0.07227398598094459 
-1.3047247003422706 -0.07973947007884792 
-1.3135199621270872 -0.08679875672908298 
-1.3220668254760606 -0.09347609811574166 
-1.3303809193749743 -0.09979430589672092 
-1.3384769470054598 -0.10577483679137897 
-1.3463687407588913 -0.11143787308314755 
-1.3540693139817477 -0.11680239833921964 
-1.3615909096466399 -0.12188626863148226 
-1.3689450461316572 -0.12670627952598018 
-1.3761425602798396 -0.1312782290923164 
-1.3831936479003704 -0.13561697716945803 
-1.3901079018634868 -0.13973650111036717 
-1.3968943479320743 -0.14364994821466157 
-1.4035614784644141 -0.14736968504608008 
-1.4101172841145677 -0.15090734381983714 
-1.4165692836493635 -0.15427386603395396 
-1.4229245519938867 -0.15747954350831103 
-1.4291897466107217 -0.1605340569854376 
-1.4353711323119458 -0.16344651243790376 
-1.4414746045969868 -0.16622547521857348 
-1.4475057116039318 -0.1688790021818811 
-1.4534696747566642 -0.1714146718966801 
-1.4593714081853146 -0.17383961306404977 
-1.465215536992908 -0.1761605312467092 
-1.4710064144367578 -0.1783837340103521 
-1.476748138089086 -0.18051515457125505 
-1.4824445650375155 -0.18256037403890674 
-1.4880993261824838 -0.18452464233713228 
-1.4937158396852246 -0.1864128978822285 
-1.4992973236167944 -0.18822978609195928 
-1.5048468078556065 -0.18997967679487412 
-1.5103671452781233 -0.19166668060528536 
-1.5158610222847024 -0.19329466432535736 
-1.5213309687000978 -0.19486726543211055 
-1.5267793670857697 -0.19638790570370862 
-1.5322084614989506 -0.19785980403616643 
-1.537620365731335 -0.1992859884985792 
-1.5430170710583122 -0.2006693076721143 
-1.5484004535278242 -0.20201244131532012 
-1.5537722808161971 -0.20331791039577762 
-1.5591342186766766 -0.2045880865257424 
-1.5644878370048656 -0.20582520083718786 
-1.5698346155438259 -0.2070313523295571 
-1.5751759492502506 -0.208208515721551 
-1.580513153341848 -0.20935854883642002 
-1.5858474680448726 -0.2104831995484754 
Trapezni
0.8641681635030827 2.8061070925773097 
0.7364170530826891 2.6240543675555874 
0.6162511167346683 2.453116720328723 
0.503205143884126 2.292613445816726 
0.3968424075011883 2.1419055197778425 
0.2967529199793376 2.0003930465922903 
0.20255179581037486 1.867512863324163 
0.11387771451660005 1.7427362904922243 
0.030391477701226924 1.6255670205662662 
-0.04822534554604811 1.5155391357557708 
-0.12227169029851534 1.4122152471740057 
-0.19202818957587375 1.3151847479454526 
-0.25775829502952585 1.2240621732795505 
-0.31970932900571475 1.1384856609609566 
-0.3781134721883989 1.058115506107587 
-0.43318869076646793 0.9826328044242002 
-0.48513960682836543 0.9117381785327333 
-0.534158315460438 0.8451505822924092 
-0.5804251518124657 0.7826061783341163 
-0.6241094111940005 0.7238572843259805 
-0.6653700250775468 0.6686713837615589 
-0.7043561957085107 0.6168301973197816 
-0.7412079918565228 0.5681288110876948 
-0.7760569080875395 0.5223748581641595 
-0.8090263897904301 0.47938775037586867 
-0.8402323260549835 0.4389979570371847 
-0.8697835123698674 0.40104632787319705 
-0.8977820849885338 0.3653834574017808 
-0.9243239286979114 0.33186908823602534 
-0.9494990596184902 0.30037155092384776 
-0.9733919845646908 0.2707672380875335 
-0.99608203840078 0.2429401107629396 
-1.0176437007397237 0.21678123496669968 
-1.0381468932498517 0.1921883466404998 
-1.057657258756768 0.16906544323483014 
-1.0762364232552244 0.1473224003010156 
-1.0939422418774183 0.1268746115602095 
-1.1108290298001062 0.10764265101180147 
-1.1269477790127584 0.0895519557317141 
-1.1423463618125203 0.07253252809369826 
-1.1570697218387267 0.056518656224311674 
-1.1711600534099553 0.041448651575089236 
-1.1846569698798763 0.027264602563779668 
-1.1975976616843094 0.013912143300701885 
-1.2100170447107153 0.001340236476523862 
-1.2219478995827038 -0.01049903045567301 
-1.2334210024158527 -0.021650636618084286 
-1.2444652475670697 -0.03215680732982217 
-1.2551077628677507 -0.04205718272990579 
-1.26537401780097 -0.05138897607507506 
-1.2752879250547553 -0.060187122344662856 
-1.2848719358570466 -0.06848441774604702 
-1.2941471294730997 -0.07631165067786097 
-1.303133297222782 -0.08369772467402439 
-1.3118490213533212 -0.09066977381962711 
-1.3203117490825191 -0.09725327109963222 
-1.3285378621081532 -0.10347213011313859 
-1.3365427418611853 -0.10934880055944486 
-1.3443408307633902 -0.11490435787728229 
-1.3519456897340647 -0.12015858739523158 
-1.3593700521754966 -0.12513006332941667 
-1.366625874652803 -0.12983622294398897 
-1.3737243844705553 -0.1342934361705953 
-1.3806761243362022 -0.13851707096488722 
-1.387490994288677 -0.14252155466110197 
-1.3941782910596472 -0.14632043156976332 
-1.400746745024611 -0.14992641704854384 
-1.4072045548914214 -0.15335144826224634 
-1.4135594202647803 -0.15660673183463644 
-1.419818572216761 -0.15970278858244624 
-1.4259888019854559 -0.1626494955102142 
-1.4320764879163677 -0.16545612523368677 
-1.4380876207541473 -0.168131382989237 
-1.4440278273856877 -0.1706834413771139 
-1.4499023931294033 -0.17311997297728535 
-1.4557162826597132 -0.17544818096814102 
-1.4614741596503014 -0.1776748278703441 
-1.4671804052146014 -0.17980626253063436 
-1.4728391352171606 -0.1818484454533536 
-1.478454216525016 -0.18380697258086676 
-1.484029282263993 -0.18568709761785646 
-1.4895677461408547 -0.18749375298865287 
-1.4950728158885027 -0.18923156951130124 
-1.500547505887929 -0.19090489486694476 
-1.5059946490173244 -0.19251781093828788 
-1.5114169077756725 -0.19407415008638917 
-1.5168167847252476 -0.1955775104307924 
-1.5221966322947273 -0.19703127019402372 
-1.5275586619820671 -0.19843860116774575 
-1.5329049529938947 -0.19980248135435213 
-1.5382374603559228 -0.20112570683449169 
-1.543558022526776 -0.20241090290792074 
-1.5488683685456357 -0.20366053455217928 
-1.5541701247422492 -0.20487691624086224 
-1.559464821036102 -0.20606222116069933 
-1.5647538968499082 -0.20721848986425595 
-1.5700387066610364 -0.20834763839281323 
-1.5753205252130398 -0.2094514659018697 
-1.5806005524081057 -0.21053166181971977 
-1.5858799178999607 -0.21158981256770037 
Runge-Kutta 4. reda
0.8644591275 2.806316804166667 
0.7374841626585322 2.624750737269347 
0.6185710295003314 2.4545628481033495 
0.5072465721197638 2.2950594273740346 
0.403066662186707 2.145589238349616 
0.305614422297566 2.0055409170329996 
0.21449855808024526 1.8743405314759627 
0.12935179239596667 1.7514492904941465 
0.04982939538832187 1.6363613926376614 
-0.02439219548749838 1.528602006831886 
-0.09361667096321569 1.4277253766285887 
-0.15812906615448166 1.3333130405008615 
-0.21819690231065014 1.2449721610785236 
-0.27407125867441157 1.1623339566554631 
-0.3259877787294448 1.0850522287085884 
-0.37416761485236427 1.0128019795512668 
-0.41881831513939394 0.9452781146038862 
-0.46013465594740105 0.8821942241019034 
-0.49829942347225337 0.8232814393788064 
-0.5334841474840553 0.7682873591590648 
-0.5658497901478631 0.7169750415755756 
-0.5955473926792116 0.6691220578884378 
-0.6227186824154911 0.6245196041281559 
-0.647496642726221 0.5829716671175686 
-0.6700060480369464 0.5442942415438401 
-0.690363966102241 0.5083145949556052 
-0.7086802295325814 0.47487057775164704 
-0.7250578784571411 0.4438099754070588 
-0.7395935760893486 0.4149899003514217 
-0.7523779988538978 0.3882762210717985 
-0.7634962026323701 0.36354302616191364 
-0.7730279665893064 0.34067212117837414 
-0.7810481159510869 0.31955255629572643 
-0.7876268250259694 0.3000801828750732 
-0.7928299016747733 0.2821572371763759 
-0.796719054367663 0.2656919495529079 
-0.7993521428929767 0.2505981775680294 
-0.800783413718801 0.23679506156993702 
-0.8010637209467323 0.22420670134967804 
-0.8002407337397649 0.21276185259186664 
-0.7983591310522553 0.20239364190654077 
-0.7954607844392346 0.19303929930475988 
-0.7915849296747606 0.18463990705016645 
-0.7867683278643344 0.177140163884097 
-0.7810454166944762 0.17048816368318745 
-0.774448452423187 0.16463518766602264 
-0.7670076431780682 0.15953550931945842 
-0.758751274094179 0.15514621126601194 
-0.7497058247911387 0.15142701334137687 
-0.7398960796584071 0.1483401111958629 
-0.7293452313889708 0.14585002477556294 
-0.7180749781747149 0.14392345607848464 
-0.7061056149514633 0.14252915561790175 
-0.6934561190579204 0.14163779705993418 
-0.6801442306504509 0.14122185953499108 
-0.6661865281947049 0.14125551715334037 
-0.651598499335444 0.14171453528382147 
-0.6363946074274793 0.14257617318171223 
-0.6205883539933131 0.14381909257710193 
-0.6041923373568188 0.14542327185891274 
-0.5872183076870313 0.14736992551204559 
-0.5696772186717924 0.14964142848609355 
-0.5515792760275436 0.15222124519374897 
-0.5329339830389311 0.1550938628555088 
-0.5137501833100349 0.15824472892463076 
-0.49403610089790106 0.16166019234257734 
-0.4737993779886138 0.16532744839047422 
-0.4530471102663288 0.16923448691646203 
-0.4317858801164881 0.17337004373229434 
-0.41002178779578763 0.17772355498518452 
-0.38776048069335645 0.18228511432277938 
-0.365007180799986 0.18704543268028476 
-0.34176671049509766 0.19199580052923534 
-0.31804351675442094 0.19712805243722487 
-0.2938416938750529 0.2024345337971375 
-0.2691650048086506 0.20790806959307973 
-0.2440169011879542 0.2135419350783415 
-0.21840054212662252 0.2193298282483466 
-0.19231881186746747 0.2252658439987167 
-0.16577433634957695 0.23134444986529926 
-0.1387694987605018 0.23756046324932323 
-0.11130645413563034 0.24390903003677505 
-0.08338714306307278 0.2503856045266506 
-0.05501330454880633 0.2569859305879644 
-0.026186488093481442 0.2637060239703006 
0.0030919349708574337 0.27054215569729523 
0.03282076083883647 0.27749083647676054 
0.06299894324207567 0.2845488020652207 
0.09362558407184673 0.2917129995284376 
0.12469992457658574 0.29898057434308034 
0.15622133709907488 0.30634885828805125 
0.18818931732026145 0.31381535807713096 
0.22060347697870417 0.3213777446875654 
0.2534635370365351 0.3290338433419944 
0.28676932126460775 0.3367816241037297 
0.320520750221174 0.34461919304783756 
0.3547178356000044 0.352544783972781 
0.38936067492533966 0.3605567506195313 
0.424449446572445 0.3686535593670871 
0.45998440509384064 0.37683378237523857 
PE(CE)2 Euler
0.868546 2.812088 
0.745184891076 2.635599623884 
0.6294554945864117 2.4698586868637453 
0.5209241017442003 2.314229197248442 
0.419182841329436 2.168112967864371 
0.3238481444065535 2.030947369423869 
0.2345593002814986 1.9022032174078725 
0.1509770982765308 1.7813827845275334 
0.07278255022268638 1.6680179313019625 
-3.2431112700966047E-4 1.5616683477326536 
-0.06862556227542219 1.461919899472305 
-0.13238645199398347 1.3683830722781132 
-0.1918564011616817 1.2806915089086564 
-0.24726994318466355 1.198500632970608 
-0.29884760852764214 1.1214863545479934 
-0.34679675667844906 1.0493438527537968 
-0.3913123586696875 0.981786430632551 
-0.432577733095792 0.9185444381142153 
-0.4707652383891819 0.8593642589751689 
-0.5060369239549544 0.8040073580024856 
-0.538545142609082 0.752249384783711 
-0.5684331266197804 0.7038793307569852 
-0.5958355295150446 0.658698736356339 
-0.6208789356908121 0.6165209452750932 
-0.6436823397333035 0.5771704030472107 
-0.6643575972553741 0.5404819973128636 
-0.6830098489397484 0.5063004372909906 
-0.6997379193814042 0.4744796701288414 
-0.7146346922267496 0.4448823319369719 
-0.7277874630182299 0.417379231448392 
-0.739278271069293 0.39184886436306876 
-0.7491842116158992 0.3681769565542065 
-0.7575777294167069 0.34625603442109765 
-0.7645268949044037 0.3259850207752697 
-0.7700956639251385 0.30726885474252874 
-0.7743441220413818 0.29001813425367495 
-0.777328714315583 0.2741487797814848 
-0.7791024614374731 0.2595817180613297 
-0.7797151630065844 0.24624258460783854 
-0.7792135887333297 0.23406144391058722 
-0.7776416582766174 0.2229725262581804 
-0.7750406103933116 0.21291398020252927 
-0.771449162034715 0.20382763973385498 
-0.7669036579875018 0.19565880529218446 
-0.7614382116210276 0.1883560377930599 
-0.7550848372695461 0.18187096489404944 
-0.747873574746453 0.17615809877460928 
-0.7398326064581362 0.17117466474507856 
-0.7309883675572224 0.16688044004125038 
-0.7213656495488748 0.16323760219920783 
-0.7109876977392129 0.16021058644108613 
-0.6998763028918054 0.15776595153625758 
-0.6880518874364379 0.15587225363425916 
-0.6755335865539017 0.15449992759571635 
-0.6623393244413114 0.15362117537567002 
-0.6484858860443613 0.15320986104019454 
-0.6339889845259111 0.15324141202210192 
-0.6188633247242805 0.15369272624495436 
-0.6031226628395758 0.1545420847666415 
-0.5867798625722074 0.1557690696145048 
-0.5698469479244359 0.15735448650348396 
-0.552335152863256 0.15928029214709663 
-0.5342549680311391 0.1615295258883068 
-0.5156161846800761 0.16408624539355904 
-0.49642793599392854 0.1669354661685116 
-0.4766987359542981 0.1700631046683517 
-0.4564365158958937 0.17345592478907337 
-0.4356486588887039 0.17710148753879337 
-0.4143420320761222 0.18098810370012117 
-0.39252301709049564 0.18510478930583016 
-0.3701975386603509 0.1894412237606406 
-0.34737109151676004 0.19398771045186072 
-0.3240487656999237 0.19873513970097786 
-0.3002352703610403 0.203674953917081 
-0.2759349561488827 0.20879911482126404 
-0.2511518362651873 0.21410007261893566 
-0.2258896062679635 0.2195707370042746 
-0.2001516626971306 0.22520444988794996 
-0.17394112059246553 0.2309949597456961 
-0.14726082996968798 0.23693639749141746 
-0.12011339131659615 0.24302325378422396 
-0.09250117016748721 0.24925035768418083 
-0.06442631081063592 0.25561285657662164 
-0.03589074918034985 0.2621061972896362 
-0.0068962249820578025 0.26872610833382543 
0.022555706903991717 0.275468583197629 
0.05246366569755345 0.2823298646354955 
0.0828264346314091 0.2893064298898918 
0.11364295146466707 0.2963949767916568 
0.1449122995606677 0.30359241068649956 
0.1766336994959428 0.31089583213854793 
0.2088065011686727 0.3183025253647674 
0.241430176376959 0.3258099473568172 
0.27450431183899543 0.3334157176494905 
0.30802860262887816 0.34111760869731383 
0.3420028460033575 0.34891353682316356 
0.37642693559630075 0.3568015537049069 
0.4113008559590162 0.36477983836809297 
0.4466246774258874 0.372846689654621 
0.48239855128598746 0.3810005191390994 
PECE Euler Trapezni
0.8645499999999999 2.80645 
0.7376547649999999 2.625000825 
0.6188112416845 2.4549150202854997 
0.5075472133691613 2.2955002509544826 
0.4034194138888867 2.1461065419094494 
0.30601175686238946 2.006123686682711 
0.21493367327552937 1.8749788147671882 
0.12981855075742094 1.7521341077567454 
0.050322268328641506 1.637084655193185 
-0.023878179218607284 1.529356441573875 
-0.09308597279128257 1.4285044564967457 
-0.15758568146472932 1.3341109204101909 
-0.21764440078297792 1.245783618896172 
-0.27351282142711547 1.1631543388474166 
-0.3254262325112009 1.0858774003057188 
-0.373605463504638 1.0136282781096324 
-0.41825776853530067 0.9461023078578044 
-0.4595776565980501 0.8830134710302529 
-0.49774767097767825 0.8240932544254006 
-0.5329391209928914 0.7690895793668749 
-0.5653127689779152 0.7177657964121698 
-0.595019475239889 0.6698997415563389 
-0.6222008035627223 0.6252828501689922 
-0.6469895896708331 0.5837193251329762 
-0.6695104749185566 0.5450253558691533 
-0.6898804073324124 0.5090283851345148 
-0.7082091120032941 0.47556642067127025 
-0.724599532703483 0.4444873889633262 
-0.7391482464886985 0.4156485285243889 
-0.7519458529377205 0.38891582029949495 
-0.7630773395810357 0.3641634529096933 
-0.77262242497505 0.3412733206084801 
-0.7806558807893167 0.32013455194896717 
-0.7872478341905769 0.3006430672831708 
-0.7924640517288783 0.2827011633297232 
-0.7963662058573129 0.2662171231541979 
-0.7990121251476932 0.25110485000752736 
-0.8004560291995056 0.23728352356308438 
-0.8007487491784704 0.22467727718227207 
-0.7999379348637596 0.21321489492228285 
-0.7980682490291552 0.20282952707837362 
-0.795181549932942 0.19345842312687708 
-0.7913170626439383 0.18504268100452528 
-0.7865115398865684 0.17752701172477228 
-0.7807994130461082 0.170859518392933 
-0.7742129339360173 0.1649914887393449 
-0.7667823078924485 0.15987720034363798 
-0.7585358187264609 0.15547373777378257 
-0.7494999460320086 0.15174082091107344 
-0.7396994753173094 0.14864064377679218 
-0.7291576013985934 0.14613772321814777 
-0.7178960254683798 0.14419875685039102 
-0.7059350462252139 0.14279248968889122 
-0.6932936454281322 0.14188958893959983 
-0.6799895682168985 0.14146252644884208 
-0.6660393985181929 0.14148546834390668 
-0.6514586298383507 0.14193417142456335 
-0.6362617317248578 0.14278588589254596 
-0.6204622121615498 0.14401926403130022 
-0.604072676146251 0.14561427447201103 
-0.5871048806843768 0.14755212170419005 
-0.5695697864177369 0.1498151705100075 
-0.5514776060943661 0.15238687502117695 
-0.532837850072618 0.15525171211562583 
-0.5136593690409375 0.158395118888482 
-0.49395039412363 0.16180343394814584 
-0.47371857453252664 0.16546384230346234 
-0.4529710129146633 0.1693643236223221 
-0.43171429853690957 0.17349360365545644 
-0.4099545384398609 0.1778411086318085 
-0.38769738668521425 0.18239692244370523 
-0.364948071813249 0.18715174645117544 
-0.34171142261990084 0.19209686174519724 
-0.31799189235621794 0.19722409371945984 
-0.29379358144670265 0.20252577880942516 
-0.2691202588171374 0.20799473326611312 
-0.2439753819169518 0.21362422384014443 
-0.21836211551598492 0.21940794025918822 
-0.19228334935061217 0.22533996938911022 
-0.16574171468961998 0.23141477097582763 
-0.13873959988590587 0.23762715487117722 
-0.11127916497603982 0.24397225965201813 
-0.08336235538592787 0.25044553254734375 
-0.05499091479725612 0.25704271059339034 
-0.02616639722604863 0.2637598029416251 
0.0031098216384673055 0.27059307424909024 
0.03283653378944344 0.2775390290848951 
0.06301268890996262 0.2845943972906968 
0.09363738499268148 0.2917561202368142 
0.12470985953412429 0.2990213379191872 
0.15622948126847816 0.30638737684574735 
0.18819574240789053 0.3138517386639099 
0.22060825135828827 0.32141208948385336 
0.25346672588163266 0.32906624985502353 
0.28677098667730405 0.3368121853559048 
0.3205209513569803 0.3446479977595443 
0.35471662878894084 0.3525719167396099 
0.3893581137892014 0.3605822920839171 
0.4244455821382656 0.3686775863843828 
0.45997928590357806 0.3768563681742628 
